Bellabeat Case Study
…
very: jogging 6.8

Source: (https://community.fitbit.com/t5/Web-API-Development/About-the-METS-range-of-activities/m-p/3790959#M11037)

In order to analyze the data graphically, I first changed the data that I want to long format.

main_data_prep <- main_data %>%
  select(Id, ActivityDate, VeryActiveMinutes, FairlyActiveMinutes, LightlyActiveMinutes )

main_data_long <- main_data_prep %>%
  pivot_longer(names_to = "Active_Minutes", values_to="Values", VeryActiveMinutes:LightlyActiveMinutes)

main_data_long

## # A tibble: 2,820 x 4
##            Id ActivityDate Active_Minutes       Values
##         <dbl> <date>       <chr>                 <int>
##  1 1503960366 2016-04-12   VeryActiveMinutes        25
##  2 1503960366 2016-04-12   FairlyActiveMinutes      13
##  3 1503960366 2016-04-12   LightlyActiveMinutes    328
##  4 1503960366 2016-04-13   VeryActiveMinutes        21
##  5 1503960366 2016-04-13   FairlyActiveMinutes      19
##  6 1503960366 2016-04-13   LightlyActiveMinutes    217
##  7 1503960366 2016-04-14   VeryActiveMinutes        30
##  8 1503960366 2016-04-14   FairlyActiveMinutes      11
##  9 1503960366 2016-04-14   LightlyActiveMinutes    181
## 10 1503960366 2016-04-15   VeryActiveMinutes        29
## # ... with 2,810 more rows
…
